[api-updater (non-obsolete-error-filter)] 5/20/2021 11:19:31 PM : Starting C:/Program Files/Unity 2021.1.0a2/Editor/Data/Tools/ScriptUpdater/APIUpdater.NonObsoleteApiUpdaterDetector.exe
[api-updater (non-obsolete-error-filter)] 
----------------------------------
jit/startup time      : 277.0104ms
moved types parse time: 42ms
candidates parse time : 1ms
C# parse time         : 146ms
candidates check time : 59ms
console write time    : 0ms

